…
18 participants had incorrect eop size categorizations.

Next, we will check visibility classification.

``` r
nature_data_check %>% 
  select(eop_size_mm, eop_visibility_classification, correct_vis_classification, vis_check) %>% 
  filter(vis_check == "incorrect") 
```

    ## # A tibble: 88 x 4
    ##    eop_size_mm eop_visibility_classification correct_vis_classificati~ vis_check
    ##          <dbl>                         <dbl>                     <dbl> <chr>    
    ##  1         0                               1                         0 incorrect
    ##  2         0                               1                         0 incorrect
    ##  3         0                               1                         0 incorrect
    ##  4         0                               1                         0 incorrect
    ##  5         1.4                             2                         1 incorrect
    ##  6         0                               1                         0 incorrect
    ##  7         0                               1                         0 incorrect
    ##  8         0                               1                         0 incorrect
    ##  9         0                               1                         0 incorrect
    ## 10         0                               2                         0 incorrect
    ## # ... with 78 more rows
…
